[gd_resource type="StyleBoxFlat" format=2]

[resource]
bg_color = Color( 0.74902, 0.419608, 1, 0 )
border_width_left = 7
border_width_top = 7
border_width_right = 7
border_width_bottom = 7
border_color = Color( 0.643137, 0.360784, 0.858824, 1 )
corner_radius_top_left = 45
corner_radius_top_right = 45
corner_radius_bottom_right = 45
corner_radius_bottom_left = 45
